Added Component: Designator=F1(FUSE1)
Added Pin To Net: NetName=R Pin=F1-1
Added Pin To Net: NetName=L Pin=F1-2
Added Member To Class: ClassName=电源及输入保护部分 Member=Component F1 FUSE
Added Room: Name=主控MCU及温度采集
Added Room: Name=电源及输入保护部分
Added Room: Name=输出控制部分
