Added Component: Designator=R55(0805r)
Added Component: Designator=R56(0805r)
Added Component: Designator=R57(0805r)
Added Pin To Net: NetName=I/O20 Pin=R55-1
Added Pin To Net: NetName=3.3V Pin=R55-2
Added Pin To Net: NetName=I/O21 Pin=R56-1
Added Pin To Net: NetName=3.3V Pin=R56-2
Added Pin To Net: NetName=I/O22 Pin=R57-1
Added Pin To Net: NetName=3.3V Pin=R57-2
Added Member To Class: ClassName=电源及输入保护部分 Member=Component R55 RES
Added Member To Class: ClassName=电源及输入保护部分 Member=Component R56 RES
Added Member To Class: ClassName=电源及输入保护部分 Member=Component R57 RES
Added Room: Name=主控MCU及温度采集
Added Room: Name=电源及输入保护部分
Added Room: Name=输出控制部分
